{
  "EventId": "P_Adv_0000004",
  "EventTitle": "聖夜の夢想歌 前編",
  "EventStartDay": "2020/12/10",
  "EventEndDay": "2021/01/07",
  "UserSettingTerm": 28,
  "ImagePath": ".\\Image\\Progress\\AdventureStory\\P_Adv_0000004.png",
  "ExchangeItems": [
    {
      "ItemName": "★4確定ガチャチケット",
      "Rank": "Rare",
      "Num": 250,
      "Times": 1
    },
    {
      "ItemName": "11連ガチャチケット",
      "Rank": "Common",
      "Num": 100,
      "Times": 1
    },
    {
      "ItemName": "英雄の灯火",
      "Rank": "Rare",
      "Num": 30,
      "Times": 10
    },
    {
      "ItemName": "超剋の恩恵",
      "Rank": "Common",
      "Num": 20,
      "Times": 15
    },
    {
      "ItemName": "イベントキャラチケット",
      "Rank": "Common",
      "Num": 10,
      "Times": 100
    },
    {
      "ItemName": "精練石（大）",
      "Rank": "Rare",
      "Num": 30,
      "Times": 7
    },
    {
      "ItemName": "砥石（大）",
      "Rank": "Rare",
      "Num": 15,
      "Times": 5
    },
    {
      "ItemName": "経験解放のオーブ",
      "Rank": "Common",
      "Num": 150,
      "Times": 2
    },
    {
      "ItemName": "金貨解放のオーブ",
      "Rank": "Common",
      "Num": 150,
      "Times": 2
    },
    {
      "ItemName": "恩恵解放のオーブ",
      "Rank": "Common",
      "Num": 150,
      "Times": 2
    },
    {
      "ItemName": "100000ヴァリス",
      "Rank": "Rare",
      "Num": 15,
      "Times": 25
    },
    {
      "ItemName": "2以上確定ガチャチケット",
      "Rank": "Rare",
      "Num": 8690,
      "Times": 1
    }
  ],
  "MaxGachaFarmNum": 0,
  "GuildRewards": [
    {
      "RequirementTarget": "水晶の髪飾り",
      "RequirementCondition": "20",
      "RewardItemName": "経験値の書（上級）",
      "RewardItemNum": "5"
    },
    {
      "RequirementTarget": "水晶の髪飾り",
      "RequirementCondition": "45",
      "RewardItemName": "ジャガ丸くん",
      "RewardItemNum": "3"
    },
    {
      "RequirementTarget": "水晶の髪飾り",
      "RequirementCondition": "90",
      "RewardItemName": "ヴァリス",
      "RewardItemNum": "100000"
    },
    {
      "RequirementTarget": "水晶の髪飾り",
      "RequirementCondition": "135",
      "RewardItemName": "★2以上確定ガチャチケット",
      "RewardItemNum": "1"
    },
    {
      "RequirementTarget": "水晶の髪飾り",
      "RequirementCondition": "180",
      "RewardItemName": "ジャガ丸くん",
      "RewardItemNum": "3"
    },
    {
      "RequirementTarget": "水晶の髪飾り",
      "RequirementCondition": "225",
      "RewardItemName": "★2以上確定ガチャチケット",
      "RewardItemNum": "1"
    },
    {
      "RequirementTarget": "水晶の髪飾り",
      "RequirementCondition": "270",
      "RewardItemName": "ジャガ丸くん",
      "RewardItemNum": "3"
    },
    {
      "RequirementTarget": "水晶の髪飾り",
      "RequirementCondition": "315",
      "RewardItemName": "★2以上確定ガチャチケット",
      "RewardItemNum": "1"
    },
    {
      "RequirementTarget": "水晶の髪飾り",
      "RequirementCondition": "360",
      "RewardItemName": "ジャガ丸くん",
      "RewardItemNum": "3"
    },
    {
      "RequirementTarget": "水晶の髪飾り",
      "RequirementCondition": "405",
      "RewardItemName": "★2以上確定ガチャチケット",
      "RewardItemNum": "1"
    },
    {
      "RequirementTarget": "水晶の髪飾り",
      "RequirementCondition": "450",
      "RewardItemName": "赤",
      "RewardItemNum": "10"
    },
    {
      "RequirementTarget": "水晶の髪飾り",
      "RequirementCondition": "495",
      "RewardItemName": "ヴァリス",
      "RewardItemNum": "100000"
    },
    {
      "RequirementTarget": "水晶の髪飾り",
      "RequirementCondition": "540",
      "RewardItemName": "黄",
      "RewardItemNum": "10"
    },
    {
      "RequirementTarget": "水晶の髪飾り",
      "RequirementCondition": "585",
      "RewardItemName": "ジャガ丸くん",
      "RewardItemNum": "3"
    },
    {
      "RequirementTarget": "水晶の髪飾り",
      "RequirementCondition": "630",
      "RewardItemName": "紫",
      "RewardItemNum": "10"
    },
    {
      "RequirementTarget": "水晶の髪飾り",
      "RequirementCondition": "675",
      "RewardItemName": "★2以上確定ガチャチケット",
      "RewardItemNum": "1"
    },
    {
      "RequirementTarget": "水晶の髪飾り",
      "RequirementCondition": "720",
      "RewardItemName": "青",
      "RewardItemNum": "10"
    },
    {
      "RequirementTarget": "水晶の髪飾り",
      "RequirementCondition": "765",
      "RewardItemName": "ジャガ丸くん",
      "RewardItemNum": "3"
    },
    {
      "RequirementTarget": "水晶の髪飾り",
      "RequirementCondition": "855",
      "RewardItemName": "黒",
      "RewardItemNum": "10"
    },
    {
      "RequirementTarget": "水晶の髪飾り",
      "RequirementCondition": "900",
      "RewardItemName": "★3以上確定ガチャチケット",
      "RewardItemNum": "1"
    },
    {
      "RequirementTarget": "水晶の髪飾り",
      "RequirementCondition": "945",
      "RewardItemName": "ジャガ丸くん",
      "RewardItemNum": "3"
    },
    {
      "RequirementTarget": "水晶の髪飾り",
      "RequirementCondition": "990",
      "RewardItemName": "★2以上確定ガチャチケット",
      "RewardItemNum": "1"
    },
    {
      "RequirementTarget": "水晶の髪飾り",
      "RequirementCondition": "1035",
      "RewardItemName": "ジャガ丸くん",
      "RewardItemNum": "3"
    },
    {
      "RequirementTarget": "水晶の髪飾り",
      "RequirementCondition": "1080",
      "RewardItemName": "ヴァリス",
      "RewardItemNum": "100000"
    },
    {
      "RequirementTarget": "水晶の髪飾り",
      "RequirementCondition": "1125",
      "RewardItemName": "★2以上確定ガチャチケット",
      "RewardItemNum": "1"
    },
    {
      "RequirementTarget": "水晶の髪飾り",
      "RequirementCondition": "1170",
      "RewardItemName": "ジャガ丸くん",
      "RewardItemNum": "3"
    },
    {
      "RequirementTarget": "水晶の髪飾り",
      "RequirementCondition": "1215",
      "RewardItemName": "★2以上確定ガチャチケット",
      "RewardItemNum": "1"
    },
    {
      "RequirementTarget": "水晶の髪飾り",
      "RequirementCondition": "1260",
      "RewardItemName": "ジャガ丸くん",
      "RewardItemNum": "3"
    },
    {
      "RequirementTarget": "水晶の髪飾り",
      "RequirementCondition": "1305",
      "RewardItemName": "★2以上確定ガチャチケット",
      "RewardItemNum": "1"
    },
    {
      "RequirementTarget": "水晶の髪飾り",
      "RequirementCondition": "1350",
      "RewardItemName": "赤",
      "RewardItemNum": "10"
    },
    {
      "RequirementTarget": "水晶の髪飾り",
      "RequirementCondition": "1395",
      "RewardItemName": "ジャガ丸くん",
      "RewardItemNum": "3"
    },
    {
      "RequirementTarget": "水晶の髪飾り",
      "RequirementCondition": "1440",
      "RewardItemName": "黄",
      "RewardItemNum": "10"
    },
    {
      "RequirementTarget": "水晶の髪飾り",
      "RequirementCondition": "1485",
      "RewardItemName": "ヴァリス",
      "RewardItemNum": "100000"
    },
    {
      "RequirementTarget": "水晶の髪飾り",
      "RequirementCondition": "1530",
      "RewardItemName": "紫",
      "RewardItemNum": "10"
    },
    {
      "RequirementTarget": "水晶の髪飾り",
      "RequirementCondition": "1575",
      "RewardItemName": "★2以上確定ガチャチケット",
      "RewardItemNum": "1"
    },
    {
      "RequirementTarget": "水晶の髪飾り",
      "RequirementCondition": "1620",
      "RewardItemName": "青",
      "RewardItemNum": "10"
    },
    {
      "RequirementTarget": "水晶の髪飾り",
      "RequirementCondition": "1665",
      "RewardItemName": "ジャガ丸くん",
      "RewardItemNum": "3"
    },
    {
      "RequirementTarget": "水晶の髪飾り",
      "RequirementCondition": "1710",
      "RewardItemName": "緑",
      "RewardItemNum": "10"
    },
    {
      "RequirementTarget": "水晶の髪飾り",
      "RequirementCondition": "1755",
      "RewardItemName": "黒",
      "RewardItemNum": "10"
    },
    {
      "RequirementTarget": "水晶の髪飾り",
      "RequirementCondition": "1800",
      "RewardItemName": "★3以上確定ガチャチケット",
      "RewardItemNum": "1"
    },
    {
      "RequirementTarget": "水晶の髪飾り",
      "RequirementCondition": "1845",
      "RewardItemName": "ジャガ丸くん",
      "RewardItemNum": "3"
    },
    {
      "RequirementTarget": "水晶の髪飾り",
      "RequirementCondition": "1890",
      "RewardItemName": "★2以上確定ガチャチケット",
      "RewardItemNum": "1"
    },
    {
      "RequirementTarget": "水晶の髪飾り",
      "RequirementCondition": "1935",
      "RewardItemName": "ジャガ丸くん",
      "RewardItemNum": "3"
    },
    {
      "RequirementTarget": "水晶の髪飾り",
      "RequirementCondition": "1980",
      "RewardItemName": "★2以上確定ガチャチケット",
      "RewardItemNum": "1"
    },
    {
      "RequirementTarget": "水晶の髪飾り",
      "RequirementCondition": "2025",
      "RewardItemName": "ヴァリス",
      "RewardItemNum": "100000"
    },
    {
      "RequirementTarget": "水晶の髪飾り",
      "RequirementCondition": "2070",
      "RewardItemName": "ジャガ丸くん",
      "RewardItemNum": "3"
    },
    {
      "RequirementTarget": "水晶の髪飾り",
      "RequirementCondition": "2115",
      "RewardItemName": "★2以上確定ガチャチケット",
      "RewardItemNum": "1"
    },
    {
      "RequirementTarget": "水晶の髪飾り",
      "RequirementCondition": "2160",
      "RewardItemName": "ジャガ丸くん",
      "RewardItemNum": "3"
    },
    {
      "RequirementTarget": "水晶の髪飾り",
      "RequirementCondition": "2205",
      "RewardItemName": "★2以上確定ガチャチケット",
      "RewardItemNum": "1"
    },
    {
      "RequirementTarget": "水晶の髪飾り",
      "RequirementCondition": "2250",
      "RewardItemName": "赤",
      "RewardItemNum": "10"
    },
    {
      "RequirementTarget": "水晶の髪飾り",
      "RequirementCondition": "2295",
      "RewardItemName": "ジャガ丸くん",
      "RewardItemNum": "3"
    },
    {
      "RequirementTarget": "水晶の髪飾り",
      "RequirementCondition": "2340",
      "RewardItemName": "黄",
      "RewardItemNum": "10"
    },
    {
      "RequirementTarget": "水晶の髪飾り",
      "RequirementCondition": "2385",
      "RewardItemName": "★2以上確定ガチャチケット",
      "RewardItemNum": "1"
    },
    {
      "RequirementTarget": "水晶の髪飾り",
      "RequirementCondition": "2430",
      "RewardItemName": "紫",
      "RewardItemNum": "10"
    },
    {
      "RequirementTarget": "水晶の髪飾り",
      "RequirementCondition": "2475",
      "RewardItemName": "ジャガ丸くん",
      "RewardItemNum": "3"
    },
    {
      "RequirementTarget": "水晶の髪飾り",
      "RequirementCondition": "2520",
      "RewardItemName": "青",
      "RewardItemNum": "10"
    },
    {
      "RequirementTarget": "水晶の髪飾り",
      "RequirementCondition": "2565",
      "RewardItemName": "ヴァリス",
      "RewardItemNum": "100000"
    },
    {
      "RequirementTarget": "水晶の髪飾り",
      "RequirementCondition": "2610",
      "RewardItemName": "緑",
      "RewardItemNum": "10"
    },
    {
      "RequirementTarget": "水晶の髪飾り",
      "RequirementCondition": "2655",
      "RewardItemName": "黒",
      "RewardItemNum": "10"
    },
    {
      "RequirementTarget": "水晶の髪飾り",
      "RequirementCondition": "2700",
      "RewardItemName": "★3以上確定ガチャチケット",
      "RewardItemNum": "1"
    },
    {
      "RequirementTarget": "水晶の髪飾り",
      "RequirementCondition": "2745",
      "RewardItemName": "ジャガ丸くん",
      "RewardItemNum": "3"
    },
    {
      "RequirementTarget": "水晶の髪飾り",
      "RequirementCondition": "2790",
      "RewardItemName": "★2以上確定ガチャチケット",
      "RewardItemNum": "1"
    },
    {
      "RequirementTarget": "水晶の髪飾り",
      "RequirementCondition": "2835",
      "RewardItemName": "ジャガ丸くん",
      "RewardItemNum": "3"
    },
    {
      "RequirementTarget": "水晶の髪飾り",
      "RequirementCondition": "2880",
      "RewardItemName": "★2以上確定ガチャチケット",
      "RewardItemNum": "1"
    },
    {
      "RequirementTarget": "水晶の髪飾り",
      "RequirementCondition": "2925",
      "RewardItemName": "ジャガ丸くん",
      "RewardItemNum": "3"
    },
    {
      "RequirementTarget": "水晶の髪飾り",
      "RequirementCondition": "2970",
      "RewardItemName": "ヴァリス",
      "RewardItemNum": "100000"
    },
    {
      "RequirementTarget": "水晶の髪飾り",
      "RequirementCondition": "3015",
      "RewardItemName": "★2以上確定ガチャチケット",
      "RewardItemNum": "1"
    },
    {
      "RequirementTarget": "水晶の髪飾り",
      "RequirementCondition": "3060",
      "RewardItemName": "ジャガ丸くん",
      "RewardItemNum": "3"
    },
    {
      "RequirementTarget": "水晶の髪飾り",
      "RequirementCondition": "3105",
      "RewardItemName": "★2以上確定ガチャチケット",
      "RewardItemNum": "1"
    },
    {
      "RequirementTarget": "水晶の髪飾り",
      "RequirementCondition": "3150",
      "RewardItemName": "赤",
      "RewardItemNum": "10"
    },
    {
      "RequirementTarget": "水晶の髪飾り",
      "RequirementCondition": "3195",
      "RewardItemName": "ジャガ丸くん",
      "RewardItemNum": "3"
    },
    {
      "RequirementTarget": "水晶の髪飾り",
      "RequirementCondition": "3240",
      "RewardItemName": "黄",
      "RewardItemNum": "10"
    },
    {
      "RequirementTarget": "水晶の髪飾り",
      "RequirementCondition": "3285",
      "RewardItemName": "★2以上確定ガチャチケット",
      "RewardItemNum": "1"
    },
    {
      "RequirementTarget": "水晶の髪飾り",
      "RequirementCondition": "3330",
      "RewardItemName": "紫",
      "RewardItemNum": "10"
    },
    {
      "RequirementTarget": "水晶の髪飾り",
      "RequirementCondition": "3375",
      "RewardItemName": "ジャガ丸くん",
      "RewardItemNum": "3"
    },
    {
      "RequirementTarget": "水晶の髪飾り",
      "RequirementCondition": "3420",
      "RewardItemName": "青",
      "RewardItemNum": "10"
    },
    {
      "RequirementTarget": "水晶の髪飾り",
      "RequirementCondition": "3465",
      "RewardItemName": "★3以上確定ガチャチケット",
      "RewardItemNum": "1"
    },
    {
      "RequirementTarget": "水晶の髪飾り",
      "RequirementCondition": "3510",
      "RewardItemName": "緑",
      "RewardItemNum": "10"
    },
    {
      "RequirementTarget": "水晶の髪飾り",
      "RequirementCondition": "3555",
      "RewardItemName": "ヴァリス",
      "RewardItemNum": "100000"
    },
    {
      "RequirementTarget": "水晶の髪飾り",
      "RequirementCondition": "3600",
      "RewardItemName": "黒",
      "RewardItemNum": "10"
    },
    {
      "RequirementTarget": "水晶の髪飾り",
      "RequirementCondition": "3645",
      "RewardItemName": "ジャガ丸くん",
      "RewardItemNum": "3"
    },
    {
      "RequirementTarget": "水晶の髪飾り",
      "RequirementCondition": "3690",
      "RewardItemName": "★2以上確定ガチャチケット",
      "RewardItemNum": "1"
    },
    {
      "RequirementTarget": "水晶の髪飾り",
      "RequirementCondition": "3735",
      "RewardItemName": "ジャガ丸くん",
      "RewardItemNum": "3"
    },
    {
      "RequirementTarget": "水晶の髪飾り",
      "RequirementCondition": "3780",
      "RewardItemName": "★2以上確定ガチャチケット",
      "RewardItemNum": "1"
    },
    {
      "RequirementTarget": "水晶の髪飾り",
      "RequirementCondition": "3825",
      "RewardItemName": "ジャガ丸くん",
      "RewardItemNum": "3"
    },
    {
      "RequirementTarget": "水晶の髪飾り",
      "RequirementCondition": "3870",
      "RewardItemName": "★2以上確定ガチャチケット",
      "RewardItemNum": "1"
    },
    {
      "RequirementTarget": "水晶の髪飾り",
      "RequirementCondition": "3915",
      "RewardItemName": "ジャガ丸くん",
      "RewardItemNum": "3"
    },
    {
      "RequirementTarget": "水晶の髪飾り",
      "RequirementCondition": "3690",
      "RewardItemName": "ヴァリス",
      "RewardItemNum": "100000"
    },
    {
      "RequirementTarget": "水晶の髪飾り",
      "RequirementCondition": "4005",
      "RewardItemName": "★2以上確定ガチャチケット",
      "RewardItemNum": "1"
    },
    {
      "RequirementTarget": "水晶の髪飾り",
      "RequirementCondition": "4050",
      "RewardItemName": "赤",
      "RewardItemNum": "10"
    },
    {
      "RequirementTarget": "水晶の髪飾り",
      "RequirementCondition": "4095",
      "RewardItemName": "ジャガ丸くん",
      "RewardItemNum": "3"
    },
    {
      "RequirementTarget": "水晶の髪飾り",
      "RequirementCondition": "4140",
      "RewardItemName": "黄",
      "RewardItemNum": "10"
    },
    {
      "RequirementTarget": "水晶の髪飾り",
      "RequirementCondition": "4185",
      "RewardItemName": "★2以上確定ガチャチケット",
      "RewardItemNum": "1"
    },
    {
      "RequirementTarget": "水晶の髪飾り",
      "RequirementCondition": "4230",
      "RewardItemName": "紫",
      "RewardItemNum": "10"
    },
    {
      "RequirementTarget": "水晶の髪飾り",
      "RequirementCondition": "4275",
      "RewardItemName": "ジャガ丸くん",
      "RewardItemNum": "3"
    },
    {
      "RequirementTarget": "水晶の髪飾り",
      "RequirementCondition": "4320",
      "RewardItemName": "青",
      "RewardItemNum": "10"
    },
    {
      "RequirementTarget": "水晶の髪飾り",
      "RequirementCondition": "4365",
      "RewardItemName": "★3以上確定ガチャチケット",
      "RewardItemNum": "1"
    },
    {
      "RequirementTarget": "水晶の髪飾り",
      "RequirementCondition": "4410",
      "RewardItemName": "緑",
      "RewardItemNum": "10"
    },
    {
      "RequirementTarget": "水晶の髪飾り",
      "RequirementCondition": "4455",
      "RewardItemName": "ジャガ丸くん",
      "RewardItemNum": "3"
    },
    {
      "RequirementTarget": "水晶の髪飾り",
      "RequirementCondition": "4500",
      "RewardItemName": "黒",
      "RewardItemNum": "10"
    },
    {
      "RequirementTarget": "水晶の髪飾り",
      "RequirementCondition": "4545",
      "RewardItemName": "ヴァリス",
      "RewardItemNum": "100000"
    },
    {
      "RequirementTarget": "水晶の髪飾り",
      "RequirementCondition": "4590",
      "RewardItemName": "★2以上確定ガチャチケット",
      "RewardItemNum": "1"
    },
    {
      "RequirementTarget": "水晶の髪飾り",
      "RequirementCondition": "4635",
      "RewardItemName": "ジャガ丸くん",
      "RewardItemNum": "3"
    },
    {
      "RequirementTarget": "水晶の髪飾り",
      "RequirementCondition": "4680",
      "RewardItemName": "★2以上確定ガチャチケット",
      "RewardItemNum": "1"
    },
    {
      "RequirementTarget": "水晶の髪飾り",
      "RequirementCondition": "4725",
      "RewardItemName": "ジャガ丸くん",
      "RewardItemNum": "3"
    },
    {
      "RequirementTarget": "水晶の髪飾り",
      "RequirementCondition": "4770",
      "RewardItemName": "★2以上確定ガチャチケット",
      "RewardItemNum": "1"
    },
    {
      "RequirementTarget": "水晶の髪飾り",
      "RequirementCondition": "4815",
      "RewardItemName": "ジャガ丸くん",
      "RewardItemNum": "3"
    },
    {
      "RequirementTarget": "水晶の髪飾り",
      "RequirementCondition": "4860",
      "RewardItemName": "★2以上確定ガチャチケット",
      "RewardItemNum": "1"
    },
    {
      "RequirementTarget": "水晶の髪飾り",
      "RequirementCondition": "4905",
      "RewardItemName": "赤",
      "RewardItemNum": "10"
    },
    {
      "RequirementTarget": "水晶の髪飾り",
      "RequirementCondition": "4950",
      "RewardItemName": "ヴァリス",
      "RewardItemNum": "100000"
    },
    {
      "RequirementTarget": "水晶の髪飾り",
      "RequirementCondition": "4995",
      "RewardItemName": "黄",
      "RewardItemNum": "10"
    },
    {
      "RequirementTarget": "水晶の髪飾り",
      "RequirementCondition": "5040",
      "RewardItemName": "ジャガ丸くん",
      "RewardItemNum": "3"
    },
    {
      "RequirementTarget": "水晶の髪飾り",
      "RequirementCondition": "5085",
      "RewardItemName": "紫",
      "RewardItemNum": "10"
    },
    {
      "RequirementTarget": "水晶の髪飾り",
      "RequirementCondition": "5130",
      "RewardItemName": "★2以上確定ガチャチケット",
      "RewardItemNum": "1"
    },
    {
      "RequirementTarget": "水晶の髪飾り",
      "RequirementCondition": "5175",
      "RewardItemName": "青",
      "RewardItemNum": "10"
    },
    {
      "RequirementTarget": "水晶の髪飾り",
      "RequirementCondition": "5220",
      "RewardItemName": "ジャガ丸くん",
      "RewardItemNum": "3"
    },
    {
      "RequirementTarget": "水晶の髪飾り",
      "RequirementCondition": "5265",
      "RewardItemName": "緑",
      "RewardItemNum": "10"
    },
    {
      "RequirementTarget": "水晶の髪飾り",
      "RequirementCondition": "5310",
      "RewardItemName": "★3以上確定ガチャチケット",
      "RewardItemNum": "1"
    },
    {
      "RequirementTarget": "水晶の髪飾り",
      "RequirementCondition": "5355",
      "RewardItemName": "黒",
      "RewardItemNum": "10"
    },
    {
      "RequirementTarget": "水晶の髪飾り",
      "RequirementCondition": "5400",
      "RewardItemName": "ジャガ丸くん",
      "RewardItemNum": "3"
    },
    {
      "RequirementTarget": "水晶の髪飾り",
      "RequirementCondition": "5445",
      "RewardItemName": "★2以上確定ガチャチケット",
      "RewardItemNum": "1"
    },
    {
      "RequirementTarget": "水晶の髪飾り",
      "RequirementCondition": "5490",
      "RewardItemName": "ジャガ丸くん",
      "RewardItemNum": "3"
    },
    {
      "RequirementTarget": "水晶の髪飾り",
      "RequirementCondition": "5535",
      "RewardItemName": "ヴァリス",
      "RewardItemNum": "100000"
    },
    {
      "RequirementTarget": "水晶の髪飾り",
      "RequirementCondition": "5580",
      "RewardItemName": "★2以上確定ガチャチケット",
      "RewardItemNum": "1"
    },
    {
      "RequirementTarget": "水晶の髪飾り",
      "RequirementCondition": "5625",
      "RewardItemName": "ジャガ丸くん",
      "RewardItemNum": "3"
    },
    {
      "RequirementTarget": "水晶の髪飾り",
      "RequirementCondition": "5670",
      "RewardItemName": "★2以上確定ガチャチケット",
      "RewardItemNum": "1"
    },
    {
      "RequirementTarget": "水晶の髪飾り",
      "RequirementCondition": "5715",
      "RewardItemName": "ジャガ丸くん",
      "RewardItemNum": "3"
    },
    {
      "RequirementTarget": "水晶の髪飾り",
      "RequirementCondition": "5760",
      "RewardItemName": "★2以上確定ガチャチケット",
      "RewardItemNum": "1"
    },
    {
      "RequirementTarget": "水晶の髪飾り",
      "RequirementCondition": "5805",
      "RewardItemName": "赤",
      "RewardItemNum": "10"
    },
    {
      "RequirementTarget": "水晶の髪飾り",
      "RequirementCondition": "5850",
      "RewardItemName": "ジャガ丸くん",
      "RewardItemNum": "3"
    },
    {
      "RequirementTarget": "水晶の髪飾り",
      "RequirementCondition": "5895",
      "RewardItemName": "黄",
      "RewardItemNum": "10"
    },
    {
      "RequirementTarget": "水晶の髪飾り",
      "RequirementCondition": "5940",
      "RewardItemName": "ヴァリス",
      "RewardItemNum": "100000"
    },
    {
      "RequirementTarget": "水晶の髪飾り",
      "RequirementCondition": "5985",
      "RewardItemName": "紫",
      "RewardItemNum": "10"
    },
    {
      "RequirementTarget": "水晶の髪飾り",
      "RequirementCondition": "6030",
      "RewardItemName": "★2以上確定ガチャチケット",
      "RewardItemNum": "1"
    },
    {
      "RequirementTarget": "水晶の髪飾り",
      "RequirementCondition": "6075",
      "RewardItemName": "青",
      "RewardItemNum": "10"
    },
    {
      "RequirementTarget": "水晶の髪飾り",
      "RequirementCondition": "6120",
      "RewardItemName": "ジャガ丸くん",
      "RewardItemNum": "3"
    },
    {
      "RequirementTarget": "水晶の髪飾り",
      "RequirementCondition": "6165",
      "RewardItemName": "緑",
      "RewardItemNum": "10"
    },
    {
      "RequirementTarget": "水晶の髪飾り",
      "RequirementCondition": "6210",
      "RewardItemName": "黒",
      "RewardItemNum": "10"
    },
    {
      "RequirementTarget": "水晶の髪飾り",
      "RequirementCondition": "6255",
      "RewardItemName": "★3以上確定ガチャチケット",
      "RewardItemNum": "1"
    },
    {
      "RequirementTarget": "水晶の髪飾り",
      "RequirementCondition": "6300",
      "RewardItemName": "ジャガ丸くん",
      "RewardItemNum": "3"
    },
    {
      "RequirementTarget": "水晶の髪飾り",
      "RequirementCondition": "6345",
      "RewardItemName": "★2以上確定ガチャチケット",
      "RewardItemNum": "1"
    },
    {
      "RequirementTarget": "水晶の髪飾り",
      "RequirementCondition": "6390",
      "RewardItemName": "ジャガ丸くん",
      "RewardItemNum": "3"
    },
    {
      "RequirementTarget": "水晶の髪飾り",
      "RequirementCondition": "6435",
      "RewardItemName": "★2以上確定ガチャチケット",
      "RewardItemNum": "1"
    },
    {
      "RequirementTarget": "水晶の髪飾り",
      "RequirementCondition": "6480",
      "RewardItemName": "ヴァリス",
      "RewardItemNum": "100000"
    },
    {
      "RequirementTarget": "水晶の髪飾り",
      "RequirementCondition": "6525",
      "RewardItemName": "ジャガ丸くん",
      "RewardItemNum": "3"
    },
    {
      "RequirementTarget": "水晶の髪飾り",
      "RequirementCondition": "6570",
      "RewardItemName": "★2以上確定ガチャチケット",
      "RewardItemNum": "1"
    },
    {
      "RequirementTarget": "水晶の髪飾り",
      "RequirementCondition": "6615",
      "RewardItemName": "ジャガ丸くん",
      "RewardItemNum": "3"
    },
    {
      "RequirementTarget": "水晶の髪飾り",
      "RequirementCondition": "6660",
      "RewardItemName": "★2以上確定ガチャチケット",
      "RewardItemNum": "1"
    },
    {
      "RequirementTarget": "水晶の髪飾り",
      "RequirementCondition": "6705",
      "RewardItemName": "赤",
      "RewardItemNum": "10"
    },
    {
      "RequirementTarget": "水晶の髪飾り",
      "RequirementCondition": "6750",
      "RewardItemName": "ジャガ丸くん",
      "RewardItemNum": "3"
    },
    {
      "RequirementTarget": "水晶の髪飾り",
      "RequirementCondition": "6795",
      "RewardItemName": "黄",
      "RewardItemNum": "10"
    },
    {
      "RequirementTarget": "水晶の髪飾り",
      "RequirementCondition": "6840",
      "RewardItemName": "★2以上確定ガチャチケット",
      "RewardItemNum": "1"
    },
    {
      "RequirementTarget": "水晶の髪飾り",
      "RequirementCondition": "6885",
      "RewardItemName": "紫",
      "RewardItemNum": "10"
    },
    {
      "RequirementTarget": "水晶の髪飾り",
      "RequirementCondition": "6930",
      "RewardItemName": "ジャガ丸くん",
      "RewardItemNum": "3"
    },
    {
      "RequirementTarget": "水晶の髪飾り",
      "RequirementCondition": "6975",
      "RewardItemName": "青",
      "RewardItemNum": "10"
    },
    {
      "RequirementTarget": "水晶の髪飾り",
      "RequirementCondition": "7020",
      "RewardItemName": "ヴァリス",
      "RewardItemNum": "100000"
    },
    {
      "RequirementTarget": "水晶の髪飾り",
      "RequirementCondition": "7065",
      "RewardItemName": "緑",
      "RewardItemNum": "10"
    },
    {
      "RequirementTarget": "水晶の髪飾り",
      "RequirementCondition": "7110",
      "RewardItemName": "★3以上確定ガチャチケット",
      "RewardItemNum": "1"
    },
    {
      "RequirementTarget": "水晶の髪飾り",
      "RequirementCondition": "7155",
      "RewardItemName": "黒",
      "RewardItemNum": "10"
    },
    {
      "RequirementTarget": "水晶の髪飾り",
      "RequirementCondition": "7200",
      "RewardItemName": "ジャガ丸くん",
      "RewardItemNum": "3"
    },
    {
      "RequirementTarget": "水晶の髪飾り",
      "RequirementCondition": "7245",
      "RewardItemName": "★2以上確定ガチャチケット",
      "RewardItemNum": "1"
    },
    {
      "RequirementTarget": "水晶の髪飾り",
      "RequirementCondition": "7290",
      "RewardItemName": "ジャガ丸くん",
      "RewardItemNum": "3"
    },
    {
      "RequirementTarget": "水晶の髪飾り",
      "RequirementCondition": "7335",
      "RewardItemName": "★2以上確定ガチャチケット",
      "RewardItemNum": "1"
    },
    {
      "RequirementTarget": "水晶の髪飾り",
      "RequirementCondition": "7380",
      "RewardItemName": "ジャガ丸くん",
      "RewardItemNum": "3"
    },
    {
      "RequirementTarget": "水晶の髪飾り",
      "RequirementCondition": "7425",
      "RewardItemName": "ヴァリス",
      "RewardItemNum": "100000"
    },
    {
      "RequirementTarget": "水晶の髪飾り",
      "RequirementCondition": "7470",
      "RewardItemName": "★2以上確定ガチャチケット",
      "RewardItemNum": "1"
    },
    {
      "RequirementTarget": "水晶の髪飾り",
      "RequirementCondition": "7515",
      "RewardItemName": "ジャガ丸くん",
      "RewardItemNum": "3"
    },
    {
      "RequirementTarget": "水晶の髪飾り",
      "RequirementCondition": "7560",
      "RewardItemName": "★2以上確定ガチャチケット",
      "RewardItemNum": "1"
    },
    {
      "RequirementTarget": "水晶の髪飾り",
      "RequirementCondition": "7605",
      "RewardItemName": "赤",
      "RewardItemNum": "10"
    },
    {
      "RequirementTarget": "水晶の髪飾り",
      "RequirementCondition": "7650",
      "RewardItemName": "ジャガ丸くん",
      "RewardItemNum": "3"
    },
    {
      "RequirementTarget": "水晶の髪飾り",
      "RequirementCondition": "7695",
      "RewardItemName": "黄",
      "RewardItemNum": "10"
    },
    {
      "RequirementTarget": "水晶の髪飾り",
      "RequirementCondition": "7740",
      "RewardItemName": "★2以上確定ガチャチケット",
      "RewardItemNum": "1"
    },
    {
      "RequirementTarget": "水晶の髪飾り",
      "RequirementCondition": "7785",
      "RewardItemName": "紫",
      "RewardItemNum": "10"
    },
    {
      "RequirementTarget": "水晶の髪飾り",
      "RequirementCondition": "7830",
      "RewardItemName": "ジャガ丸くん",
      "RewardItemNum": "3"
    },
    {
      "RequirementTarget": "水晶の髪飾り",
      "RequirementCondition": "7875",
      "RewardItemName": "青",
      "RewardItemNum": "10"
    },
    {
      "RequirementTarget": "水晶の髪飾り",
      "RequirementCondition": "7920",
      "RewardItemName": "★3以上確定ガチャチケット",
      "RewardItemNum": "1"
    },
    {
      "RequirementTarget": "水晶の髪飾り",
      "RequirementCondition": "7965",
      "RewardItemName": "緑",
      "RewardItemNum": "10"
    },
    {
      "RequirementTarget": "水晶の髪飾り",
      "RequirementCondition": "8010",
      "RewardItemName": "ヴァリス",
      "RewardItemNum": "100000"
    },
    {
      "RequirementTarget": "水晶の髪飾り",
      "RequirementCondition": "8055",
      "RewardItemName": "黒",
      "RewardItemNum": "10"
    },
    {
      "RequirementTarget": "水晶の髪飾り",
      "RequirementCondition": "8100",
      "RewardItemName": "ジャガ丸くん",
      "RewardItemNum": "3"
    },
    {
      "RequirementTarget": "水晶の髪飾り",
      "RequirementCondition": "8145",
      "RewardItemName": "★2以上確定ガチャチケット",
      "RewardItemNum": "1"
    },
    {
      "RequirementTarget": "水晶の髪飾り",
      "RequirementCondition": "8190",
      "RewardItemName": "ジャガ丸くん",
      "RewardItemNum": "3"
    },
    {
      "RequirementTarget": "水晶の髪飾り",
      "RequirementCondition": "8235",
      "RewardItemName": "★2以上確定ガチャチケット",
      "RewardItemNum": "1"
    },
    {
      "RequirementTarget": "水晶の髪飾り",
      "RequirementCondition": "8280",
      "RewardItemName": "ジャガ丸くん",
      "RewardItemNum": "3"
    },
    {
      "RequirementTarget": "水晶の髪飾り",
      "RequirementCondition": "8325",
      "RewardItemName": "★2以上確定ガチャチケット",
      "RewardItemNum": "1"
    },
    {
      "RequirementTarget": "水晶の髪飾り",
      "RequirementCondition": "8370",
      "RewardItemName": "ジャガ丸くん",
      "RewardItemNum": "3"
    },
    {
      "RequirementTarget": "水晶の髪飾り",
      "RequirementCondition": "8415",
      "RewardItemName": "ヴァリス",
      "RewardItemNum": "100000"
    },
    {
      "RequirementTarget": "水晶の髪飾り",
      "RequirementCondition": "8460",
      "RewardItemName": "★2以上確定ガチャチケット",
      "RewardItemNum": "1"
    },
    {
      "RequirementTarget": "水晶の髪飾り",
      "RequirementCondition": "8505",
      "RewardItemName": "赤",
      "RewardItemNum": "10"
    },
    {
      "RequirementTarget": "水晶の髪飾り",
      "RequirementCondition": "8550",
      "RewardItemName": "ジャガ丸くん",
      "RewardItemNum": "3"
    },
    {
      "RequirementTarget": "水晶の髪飾り",
      "RequirementCondition": "8595",
      "RewardItemName": "黄",
      "RewardItemNum": "10"
    },
    {
      "RequirementTarget": "水晶の髪飾り",
      "RequirementCondition": "8640",
      "RewardItemName": "★2以上確定ガチャチケット",
      "RewardItemNum": "1"
    },
    {
      "RequirementTarget": "水晶の髪飾り",
      "RequirementCondition": "8685",
      "RewardItemName": "紫",
      "RewardItemNum": "10"
    },
    {
      "RequirementTarget": "水晶の髪飾り",
      "RequirementCondition": "8730",
      "RewardItemName": "ジャガ丸くん",
      "RewardItemNum": "3"
    },
    {
      "RequirementTarget": "水晶の髪飾り",
      "RequirementCondition": "8775",
      "RewardItemName": "青",
      "RewardItemNum": "10"
    },
    {
      "RequirementTarget": "水晶の髪飾り",
      "RequirementCondition": "8820",
      "RewardItemName": "★3以上確定ガチャチケット",
      "RewardItemNum": "1"
    },
    {
      "RequirementTarget": "水晶の髪飾り",
      "RequirementCondition": "8865",
      "RewardItemName": "緑",
      "RewardItemNum": "10"
    },
    {
      "RequirementTarget": "水晶の髪飾り",
      "RequirementCondition": "8910",
      "RewardItemName": "ジャガ丸くん",
      "RewardItemNum": "3"
    },
    {
      "RequirementTarget": "水晶の髪飾り",
      "RequirementCondition": "8955",
      "RewardItemName": "黒",
      "RewardItemNum": "10"
    },
    {
      "RequirementTarget": "水晶の髪飾り",
      "RequirementCondition": "9000",
      "RewardItemName": "ヴァリス",
      "RewardItemNum": "100000"
    },
    {
      "RequirementTarget": "水晶の髪飾り",
      "RequirementCondition": "9045",
      "RewardItemName": "★2以上確定ガチャチケット",
      "RewardItemNum": "1"
    },
    {
      "RequirementTarget": "水晶の髪飾り",
      "RequirementCondition": "9090",
      "RewardItemName": "ジャガ丸くん",
      "RewardItemNum": "3"
    },
    {
      "RequirementTarget": "水晶の髪飾り",
      "RequirementCondition": "9135",
      "RewardItemName": "★2以上確定ガチャチケット",
      "RewardItemNum": "1"
    },
    {
      "RequirementTarget": "水晶の髪飾り",
      "RequirementCondition": "9180",
      "RewardItemName": "ジャガ丸くん",
      "RewardItemNum": "3"
    },
    {
      "RequirementTarget": "水晶の髪飾り",
      "RequirementCondition": "9225",
      "RewardItemName": "★2以上確定ガチャチケット",
      "RewardItemNum": "1"
    },
    {
      "RequirementTarget": "水晶の髪飾り",
      "RequirementCondition": "9270",
      "RewardItemName": "ジャガ丸くん",
      "RewardItemNum": "3"
    },
    {
      "RequirementTarget": "水晶の髪飾り",
      "RequirementCondition": "9315",
      "RewardItemName": "★2以上確定ガチャチケット",
      "RewardItemNum": "1"
    },
    {
      "RequirementTarget": "水晶の髪飾り",
      "RequirementCondition": "9360",
      "RewardItemName": "赤",
      "RewardItemNum": "10"
    },
    {
      "RequirementTarget": "水晶の髪飾り",
      "RequirementCondition": "9405",
      "RewardItemName": "ヴァリス",
      "RewardItemNum": "100000"
    },
    {
      "RequirementTarget": "水晶の髪飾り",
      "RequirementCondition": "9450",
      "RewardItemName": "黄",
      "RewardItemNum": "10"
    },
    {
      "RequirementTarget": "水晶の髪飾り",
      "RequirementCondition": "9495",
      "RewardItemName": "ジャガ丸くん",
      "RewardItemNum": "3"
    },
    {
      "RequirementTarget": "水晶の髪飾り",
      "RequirementCondition": "9540",
      "RewardItemName": "紫",
      "RewardItemNum": "10"
    },
    {
      "RequirementTarget": "水晶の髪飾り",
      "RequirementCondition": "9585",
      "RewardItemName": "★2以上確定ガチャチケット",
      "RewardItemNum": "1"
    },
    {
      "RequirementTarget": "水晶の髪飾り",
      "RequirementCondition": "9630",
      "RewardItemName": "青",
      "RewardItemNum": "10"
    },
    {
      "RequirementTarget": "水晶の髪飾り",
      "RequirementCondition": "9675",
      "RewardItemName": "ジャガ丸くん",
      "RewardItemNum": "3"
    },
    {
      "RequirementTarget": "水晶の髪飾り",
      "RequirementCondition": "9720",
      "RewardItemName": "緑",
      "RewardItemNum": "10"
    },
    {
      "RequirementTarget": "水晶の髪飾り",
      "RequirementCondition": "9765",
      "RewardItemName": "ヴァリス",
      "RewardItemNum": "100000"
    },
    {
      "RequirementTarget": "水晶の髪飾り",
      "RequirementCondition": "9810",
      "RewardItemName": "黒",
      "RewardItemNum": "10"
    },
    {
      "RequirementTarget": "水晶の髪飾り",
      "RequirementCondition": "9855",
      "RewardItemName": "ジャガ丸くん",
      "RewardItemNum": "3"
    },
    {
      "RequirementTarget": "水晶の髪飾り",
      "RequirementCondition": "9900",
      "RewardItemName": "★3以上確定ガチャチケット",
      "RewardItemNum": "1"
    }
  ],
  "Histories": [
    {
      "UncommonItemNum": "777",
      "CommonItemNum": "354",
      "RareItemNum": "208",
      "ToFarmGacha": "0"
    },
    {
      "UncommonItemNum": "927",
      "CommonItemNum": "424",
      "RareItemNum": "254",
      "ToFarmGacha": "0"
    },
    {
      "UncommonItemNum": "1217",
      "CommonItemNum": "579",
      "RareItemNum": "353",
      "ToFarmGacha": "0"
    },
    {
      "UncommonItemNum": "3047",
      "CommonItemNum": "1469",
      "RareItemNum": "952",
      "ToFarmGacha": "0"
    },
    {
      "UncommonItemNum": "4327",
      "CommonItemNum": "2034",
      "RareItemNum": "1353",
      "ToFarmGacha": "0"
    },
    {
      "UncommonItemNum": "5567",
      "CommonItemNum": "2534",
      "RareItemNum": "1727",
      "ToFarmGacha": "0"
    },
    {
      "UncommonItemNum": "5967",
      "CommonItemNum": "2769",
      "RareItemNum": "1872",
      "ToFarmGacha": "0"
    },
    {
      "UncommonItemNum": "7097",
      "CommonItemNum": "3359",
      "RareItemNum": "2275",
      "ToFarmGacha": "0"
    },
    {
      "UncommonItemNum": "7717",
      "CommonItemNum": "3649",
      "RareItemNum": "2489",
      "ToFarmGacha": "0"
    },
    {
      "UncommonItemNum": "8767",
      "CommonItemNum": "4204",
      "RareItemNum": "2848",
      "ToFarmGacha": "0"
    },
    {
      "UncommonItemNum": "9999",
      "CommonItemNum": "4874",
      "RareItemNum": "3290",
      "ToFarmGacha": "0"
    },
    {
      "UncommonItemNum": "9999",
      "CommonItemNum": "5464",
      "RareItemNum": "3677",
      "ToFarmGacha": "0"
    },
    {
      "UncommonItemNum": "9999",
      "CommonItemNum": "5614",
      "RareItemNum": "3782",
      "ToFarmGacha": "0"
    },
    {
      "UncommonItemNum": "9999",
      "CommonItemNum": "5754",
      "RareItemNum": "3974",
      "ToFarmGacha": "0"
    },
    {
      "UncommonItemNum": "9999",
      "CommonItemNum": "6154",
      "RareItemNum": "4133",
      "ToFarmGacha": "0"
    },
    {
      "UncommonItemNum": "9999",
      "CommonItemNum": "6416",
      "RareItemNum": "4316",
      "ToFarmGacha": "0"
    },
    {
      "UncommonItemNum": "9999",
      "CommonItemNum": "6677",
      "RareItemNum": "4498",
      "ToFarmGacha": "0"
    },
    {
      "UncommonItemNum": "9999",
      "CommonItemNum": "6748",
      "RareItemNum": "4596",
      "ToFarmGacha": "0"
    },
    {
      "UncommonItemNum": "9999",
      "CommonItemNum": "6987",
      "RareItemNum": "4695",
      "ToFarmGacha": "0"
    },
    {
      "UncommonItemNum": "9999",
      "CommonItemNum": "7714",
      "RareItemNum": "5178",
      "ToFarmGacha": "0"
    },
    {
      "UncommonItemNum": "9999",
      "CommonItemNum": "7765",
      "RareItemNum": "5211",
      "ToFarmGacha": "0"
    },
    {
      "UncommonItemNum": "9999",
      "CommonItemNum": "7863",
      "RareItemNum": "5276",
      "ToFarmGacha": "0"
    },
    {
      "UncommonItemNum": "9999",
      "CommonItemNum": "8711",
      "RareItemNum": "6031",
      "ToFarmGacha": "0"
    },
    {
      "UncommonItemNum": "9999",
      "CommonItemNum": "9999",
      "RareItemNum": "6940",
      "ToFarmGacha": "0"
    },
    {
      "UncommonItemNum": "9999",
      "CommonItemNum": "9999",
      "RareItemNum": "8001",
      "ToFarmGacha": "0"
    },
    {
      "UncommonItemNum": "9999",
      "CommonItemNum": "9999",
      "RareItemNum": "9007",
      "ToFarmGacha": "0"
    },
    {
      "UncommonItemNum": "9999",
      "CommonItemNum": "9999",
      "RareItemNum": "9555",
      "ToFarmGacha": "0"
    },
    {
      "UncommonItemNum": "9999",
      "CommonItemNum": "9999",
      "RareItemNum": "9900",
      "ToFarmGacha": "0"
    },
    {
      "UncommonItemNum": "",
      "CommonItemNum": "",
      "RareItemNum": "",
      "ToFarmGacha": ""
    }
  ]
}