{
  "EventId": "P_Adv_0000001",
  "EventTitle": "渚と闘争のロンド",
  "EventStartDay": "2020/10/08",
  "EventEndDay": "2020/11/26",
  "UserSettingTerm": 49,
  "ImagePath": ".\\Image\\Progress\\AdventureStory\\P_Adv_0000001.png",
  "ExchangeItems": [
    {
      "ItemName": "英雄の証",
      "Rank": "Common",
      "Num": 400,
      "Times": 1
    },
    {
      "ItemName": "護り火",
      "Rank": "Common",
      "Num": 400,
      "Times": 1
    },
    {
      "ItemName": "英雄の灯火",
      "Rank": "Rare",
      "Num": 30,
      "Times": 10
    },
    {
      "ItemName": "超剋の恩恵",
      "Rank": "Common",
      "Num": 20,
      "Times": 30
    },
    {
      "ItemName": "ノームチケット",
      "Rank": "Rare",
      "Num": 25,
      "Times": 5
    },
    {
      "ItemName": "ノームチケット",
      "Rank": "Rare",
      "Num": 50,
      "Times": 5
    },
    {
      "ItemName": "イベントキャラチケット",
      "Rank": "Common",
      "Num": 10,
      "Times": 100
    },
    {
      "ItemName": "信仰石（大）",
      "Rank": "Rare",
      "Num": 5,
      "Times": 60
    },
    {
      "ItemName": "信仰石（中）",
      "Rank": "Common",
      "Num": 5,
      "Times": 60
    },
    {
      "ItemName": "信仰石（小）",
      "Rank": "Uncommon",
      "Num": 5,
      "Times": 60
    },
    {
      "ItemName": "精練石（大）",
      "Rank": "Rare",
      "Num": 30,
      "Times": 7
    },
    {
      "ItemName": "砥石（大）",
      "Rank": "Rare",
      "Num": 15,
      "Times": 5
    },
    {
      "ItemName": "2以上確定ガチャチケット",
      "Rank": "Rare",
      "Num": 150,
      "Times": 2
    },
    {
      "ItemName": "2以上確定ガチャチケット",
      "Rank": "Common",
      "Num": 150,
      "Times": 3
    },
    {
      "ItemName": "2以上確定ガチャチケット",
      "Rank": "Uncommon",
      "Num": 200,
      "Times": 5
    },
    {
      "ItemName": "ノームチケット",
      "Rank": "Rare",
      "Num": 1,
      "Times": 3940
    }
  ],
  "MaxGachaFarmNum": 16,
  "GuildRewards": [
    {
      "RequirementTarget": "特大巨黒魚",
      "RequirementCondition": "20",
      "RewardItemName": "ジャガ丸くん",
      "RewardItemNum": "1"
    },
    {
      "RequirementTarget": "特大巨黒魚",
      "RequirementCondition": "40",
      "RewardItemName": "ジャガ丸くん",
      "RewardItemNum": "1"
    },
    {
      "RequirementTarget": "特大巨黒魚",
      "RequirementCondition": "80",
      "RewardItemName": "ジャガ丸くん",
      "RewardItemNum": "1"
    },
    {
      "RequirementTarget": "特大巨黒魚",
      "RequirementCondition": "110",
      "RewardItemName": "ジャガ丸くん",
      "RewardItemNum": "1"
    },
    {
      "RequirementTarget": "特大巨黒魚",
      "RequirementCondition": "160",
      "RewardItemName": "ジャガ丸くん",
      "RewardItemNum": "1"
    },
    {
      "RequirementTarget": "特大巨黒魚",
      "RequirementCondition": "180",
      "RewardItemName": "ジャガ丸くん",
      "RewardItemNum": "1"
    },
    {
      "RequirementTarget": "特大巨黒魚",
      "RequirementCondition": "240",
      "RewardItemName": "ジャガ丸くん",
      "RewardItemNum": "1"
    },
    {
      "RequirementTarget": "特大巨黒魚",
      "RequirementCondition": "280",
      "RewardItemName": "ジャガ丸くん",
      "RewardItemNum": "1"
    },
    {
      "RequirementTarget": "特大巨黒魚",
      "RequirementCondition": "330",
      "RewardItemName": "ジャガ丸くん",
      "RewardItemNum": "1"
    },
    {
      "RequirementTarget": "特大巨黒魚",
      "RequirementCondition": "370",
      "RewardItemName": "ジャガ丸くん",
      "RewardItemNum": "1"
    },
    {
      "RequirementTarget": "特大巨黒魚",
      "RequirementCondition": "420",
      "RewardItemName": "ジャガ丸くん",
      "RewardItemNum": "1"
    },
    {
      "RequirementTarget": "特大巨黒魚",
      "RequirementCondition": "470",
      "RewardItemName": "ジャガ丸くん",
      "RewardItemNum": "1"
    },
    {
      "RequirementTarget": "特大巨黒魚",
      "RequirementCondition": "520",
      "RewardItemName": "ジャガ丸くん",
      "RewardItemNum": "1"
    },
    {
      "RequirementTarget": "特大巨黒魚",
      "RequirementCondition": "570",
      "RewardItemName": "ジャガ丸くん",
      "RewardItemNum": "1"
    },
    {
      "RequirementTarget": "特大巨黒魚",
      "RequirementCondition": "620",
      "RewardItemName": "ジャガ丸くん",
      "RewardItemNum": "1"
    },
    {
      "RequirementTarget": "特大巨黒魚",
      "RequirementCondition": "640",
      "RewardItemName": "ノームチケット",
      "RewardItemNum": "20"
    },
    {
      "RequirementTarget": "特大巨黒魚",
      "RequirementCondition": "1000",
      "RewardItemName": "ノームチケット",
      "RewardItemNum": "20"
    },
    {
      "RequirementTarget": "特大巨黒魚",
      "RequirementCondition": "1400",
      "RewardItemName": "ノームチケット",
      "RewardItemNum": "20"
    },
    {
      "RequirementTarget": "特大巨黒魚",
      "RequirementCondition": "1900",
      "RewardItemName": "ノームチケット",
      "RewardItemNum": "20"
    },
    {
      "RequirementTarget": "特大巨黒魚",
      "RequirementCondition": "2700",
      "RewardItemName": "ノームチケット",
      "RewardItemNum": "20"
    },
    {
      "RequirementTarget": "特大巨黒魚",
      "RequirementCondition": "3800",
      "RewardItemName": "ノームチケット",
      "RewardItemNum": "20"
    },
    {
      "RequirementTarget": "特大巨黒魚",
      "RequirementCondition": "5500",
      "RewardItemName": "ノームチケット",
      "RewardItemNum": "30"
    }
  ],
  "Histories": [
    {
      "UncommonItemNum": "141",
      "CommonItemNum": "58",
      "RareItemNum": "22",
      "ToFarmGacha": "1"
    },
    {
      "UncommonItemNum": "880",
      "CommonItemNum": "437",
      "RareItemNum": "226",
      "ToFarmGacha": "2"
    },
    {
      "UncommonItemNum": "1213",
      "CommonItemNum": "609",
      "RareItemNum": "337",
      "ToFarmGacha": "2"
    },
    {
      "UncommonItemNum": "1537",
      "CommonItemNum": "771",
      "RareItemNum": "451",
      "ToFarmGacha": "4"
    },
    {
      "UncommonItemNum": "1888",
      "CommonItemNum": "933",
      "RareItemNum": "656",
      "ToFarmGacha": "4"
    },
    {
      "UncommonItemNum": "2245",
      "CommonItemNum": "1108",
      "RareItemNum": "682",
      "ToFarmGacha": "4"
    },
    {
      "UncommonItemNum": "2611",
      "CommonItemNum": "1291",
      "RareItemNum": "808",
      "ToFarmGacha": "6"
    },
    {
      "UncommonItemNum": "2719",
      "CommonItemNum": "1339",
      "RareItemNum": "844",
      "ToFarmGacha": "6"
    },
    {
      "UncommonItemNum": "3412",
      "CommonItemNum": "1701",
      "RareItemNum": "1093",
      "ToFarmGacha": "6"
    },
    {
      "UncommonItemNum": "4006",
      "CommonItemNum": "2007",
      "RareItemNum": "1291",
      "ToFarmGacha": "10"
    },
    {
      "UncommonItemNum": "4501",
      "CommonItemNum": "2260",
      "RareItemNum": "1477",
      "ToFarmGacha": "10"
    },
    {
      "UncommonItemNum": "5167",
      "CommonItemNum": "2582",
      "RareItemNum": "1693",
      "ToFarmGacha": "11"
    },
    {
      "UncommonItemNum": "5680",
      "CommonItemNum": "2842",
      "RareItemNum": "1861",
      "ToFarmGacha": "11"
    },
    {
      "UncommonItemNum": "6232",
      "CommonItemNum": "3127",
      "RareItemNum": "2050",
      "ToFarmGacha": "12"
    },
    {
      "UncommonItemNum": "6850",
      "CommonItemNum": "3446",
      "RareItemNum": "2263",
      "ToFarmGacha": "14"
    },
    {
      "UncommonItemNum": "7147",
      "CommonItemNum": "3593",
      "RareItemNum": "2377",
      "ToFarmGacha": "14"
    },
    {
      "UncommonItemNum": "8149",
      "CommonItemNum": "4107",
      "RareItemNum": "2719",
      "ToFarmGacha": "16"
    },
    {
      "UncommonItemNum": "8773",
      "CommonItemNum": "4419",
      "RareItemNum": "2908",
      "ToFarmGacha": "16"
    },
    {
      "UncommonItemNum": "9424",
      "CommonItemNum": "4750",
      "RareItemNum": "3124",
      "ToFarmGacha": "16"
    },
    {
      "UncommonItemNum": "9973",
      "CommonItemNum": "5035",
      "RareItemNum": "3301",
      "ToFarmGacha": "16"
    },
    {
      "UncommonItemNum": "9999",
      "CommonItemNum": "5536",
      "RareItemNum": "3643",
      "ToFarmGacha": "16"
    },
    {
      "UncommonItemNum": "9999",
      "CommonItemNum": "5873",
      "RareItemNum": "3880",
      "ToFarmGacha": "16"
    },
    {
      "UncommonItemNum": "9999",
      "CommonItemNum": "6215",
      "RareItemNum": "4117",
      "ToFarmGacha": "16"
    },
    {
      "UncommonItemNum": "9999",
      "CommonItemNum": "6303",
      "RareItemNum": "4165",
      "ToFarmGacha": "16"
    },
    {
      "UncommonItemNum": "9999",
      "CommonItemNum": "6303",
      "RareItemNum": "4165",
      "ToFarmGacha": "16"
    },
    {
      "UncommonItemNum": "9999",
      "CommonItemNum": "6303",
      "RareItemNum": "4165",
      "ToFarmGacha": "16"
    },
    {
      "UncommonItemNum": "9999",
      "CommonItemNum": "6441",
      "RareItemNum": "4270",
      "ToFarmGacha": "16"
    },
    {
      "UncommonItemNum": "9999",
      "CommonItemNum": "6630",
      "RareItemNum": "4411",
      "ToFarmGacha": "16"
    },
    {
      "UncommonItemNum": "9999",
      "CommonItemNum": "6852",
      "RareItemNum": "4552",
      "ToFarmGacha": "16"
    },
    {
      "UncommonItemNum": "9999",
      "CommonItemNum": "7053",
      "RareItemNum": "4696",
      "ToFarmGacha": "16"
    },
    {
      "UncommonItemNum": "9999",
      "CommonItemNum": "7277",
      "RareItemNum": "4855",
      "ToFarmGacha": "16"
    },
    {
      "UncommonItemNum": "9999",
      "CommonItemNum": "7463",
      "RareItemNum": "4981",
      "ToFarmGacha": "16"
    },
    {
      "UncommonItemNum": "9999",
      "CommonItemNum": "7637",
      "RareItemNum": "5104",
      "ToFarmGacha": "16"
    },
    {
      "UncommonItemNum": "9999",
      "CommonItemNum": "7860",
      "RareItemNum": "5254",
      "ToFarmGacha": "16"
    },
    {
      "UncommonItemNum": "9999",
      "CommonItemNum": "8082",
      "RareItemNum": "5395",
      "ToFarmGacha": "16"
    },
    {
      "UncommonItemNum": "9999",
      "CommonItemNum": "8257",
      "RareItemNum": "5500",
      "ToFarmGacha": "16"
    },
    {
      "UncommonItemNum": "9999",
      "CommonItemNum": "8257",
      "RareItemNum": "5500",
      "ToFarmGacha": "16"
    },
    {
      "UncommonItemNum": "9999",
      "CommonItemNum": "8257",
      "RareItemNum": "5500",
      "ToFarmGacha": "16"
    },
    {
      "UncommonItemNum": "9999",
      "CommonItemNum": "8257",
      "RareItemNum": "5500",
      "ToFarmGacha": "16"
    },
    {
      "UncommonItemNum": "9999",
      "CommonItemNum": "8257",
      "RareItemNum": "5500",
      "ToFarmGacha": "16"
    },
    {
      "UncommonItemNum": "9999",
      "CommonItemNum": "8257",
      "RareItemNum": "5500",
      "ToFarmGacha": "16"
    },
    {
      "UncommonItemNum": "9999",
      "CommonItemNum": "8257",
      "RareItemNum": "5500",
      "ToFarmGacha": "16"
    },
    {
      "UncommonItemNum": "9999",
      "CommonItemNum": "8257",
      "RareItemNum": "5500",
      "ToFarmGacha": "16"
    },
    {
      "UncommonItemNum": "9999",
      "CommonItemNum": "8257",
      "RareItemNum": "5500",
      "ToFarmGacha": "16"
    },
    {
      "UncommonItemNum": "9999",
      "CommonItemNum": "8257",
      "RareItemNum": "5500",
      "ToFarmGacha": "16"
    },
    {
      "UncommonItemNum": "9999",
      "CommonItemNum": "8257",
      "RareItemNum": "5500",
      "ToFarmGacha": "16"
    },
    {
      "UncommonItemNum": "9999",
      "CommonItemNum": "8257",
      "RareItemNum": "5500",
      "ToFarmGacha": "16"
    },
    {
      "UncommonItemNum": "9999",
      "CommonItemNum": "8257",
      "RareItemNum": "5500",
      "ToFarmGacha": "16"
    },
    {
      "UncommonItemNum": "9999",
      "CommonItemNum": "8257",
      "RareItemNum": "5500",
      "ToFarmGacha": "16"
    },
    {
      "UncommonItemNum": "",
      "CommonItemNum": "",
      "RareItemNum": "",
      "ToFarmGacha": ""
    }
  ]
}